\relax 
\@writefile{thm}{\contentsline {Example}{{\underline {Example}}{1}{}}{1}}
\@writefile{thm}{\contentsline {Example}{{\underline {Example}}{2}{}}{2}}
\@writefile{thm}{\contentsline {Example}{{\underline {Example}}{3}{}}{2}}
\@writefile{thm}{\contentsline {Example}{{\underline {Example}}{4}{}}{2}}
\@writefile{thm}{\contentsline {Exercise}{{\underline {Exercise}}{1}{}}{4}}
\@writefile{thm}{\contentsline {Exercise}{{\underline {Exercise}}{2}{}}{4}}
\@writefile{thm}{\contentsline {Proof}{{\underline {Proof}}{1}{}}{4}}
\@writefile{thm}{\contentsline {Exercise}{{\underline {Exercise}}{3}{}}{5}}
\@writefile{thm}{\contentsline {Proof}{{\underline {Proof}}{2}{}}{5}}
\@writefile{thm}{\contentsline {Theorem}{{\textbf {Theorem}}{1}{}}{5}}
\@writefile{thm}{\contentsline {Proof}{{\underline {Proof}}{3}{}}{5}}
\@writefile{thm}{\contentsline {Example}{{\underline {Example}}{5}{}}{6}}
\@writefile{thm}{\contentsline {Example}{{\underline {Example}}{6}{}}{6}}
\@writefile{thm}{\contentsline {Theorem}{{\textbf {Theorem}}{2}{}}{6}}
\@writefile{thm}{\contentsline {Definition}{{\underline {Definition}}{1}{}}{6}}
\@writefile{thm}{\contentsline {Example}{{\underline {Example}}{7}{}}{6}}
\@writefile{thm}{\contentsline {Definition}{{\underline {Definition}}{2}{}}{6}}
\@writefile{thm}{\contentsline {Definition}{{\underline {Definition}}{3}{}}{6}}
\@writefile{thm}{\contentsline {Theorem}{{\textbf {Theorem}}{3}{}}{6}}
\@writefile{thm}{\contentsline {Proof}{{\underline {Proof}}{4}{}}{7}}
\global\def\markivProof{\ensuremath {\square }}
\@writefile{thm}{\contentsline {Definition}{{\underline {Definition}}{4}{}}{8}}
\@writefile{thm}{\contentsline {Example}{{\underline {Example}}{8}{}}{8}}
\@writefile{thm}{\contentsline {Example}{{\underline {Example}}{9}{}}{8}}
\@writefile{thm}{\contentsline {Theorem}{{\textbf {Theorem}}{4}{}}{8}}
\@writefile{thm}{\contentsline {Proof}{{\underline {Proof}}{5}{}}{8}}
\@writefile{thm}{\contentsline {Theorem}{{\textbf {Theorem}}{5}{}}{9}}
\@writefile{thm}{\contentsline {Definition}{{\underline {Definition}}{5}{}}{9}}
\@writefile{thm}{\contentsline {Definition}{{\underline {Definition}}{6}{}}{9}}
\@writefile{thm}{\contentsline {Example}{{\underline {Example}}{10}{}}{9}}
\@writefile{thm}{\contentsline {Theorem}{{\textbf {Theorem}}{6}{}}{10}}
\@writefile{thm}{\contentsline {Proof}{{\underline {Proof}}{6}{}}{10}}
\global\def\markviProof{\ensuremath {\square }}
\@writefile{thm}{\contentsline {Definition}{{\underline {Definition}}{7}{}}{10}}
\@writefile{thm}{\contentsline {Example}{{\underline {Example}}{11}{}}{10}}
\@writefile{thm}{\contentsline {Lemma}{{\textbf {Lemma}}{1}{}}{10}}
\@writefile{thm}{\contentsline {Example}{{\underline {Example}}{12}{}}{10}}
\@writefile{thm}{\contentsline {Claim}{{\underline {Claim}}{1}{}}{11}}
\@writefile{thm}{\contentsline {Proof}{{\underline {Proof}}{7}{}}{11}}
\@writefile{thm}{\contentsline {Note}{{\underline {Note}}{1}{}}{11}}
\@writefile{thm}{\contentsline {Example}{{\underline {Example}}{13}{}}{11}}
\@writefile{thm}{\contentsline {Note}{{\underline {Note}}{2}{}}{11}}
\@writefile{thm}{\contentsline {Example}{{\underline {Example}}{14}{}}{12}}
\@writefile{thm}{\contentsline {Example}{{\underline {Example}}{15}{}}{12}}
\@writefile{thm}{\contentsline {Theorem}{{\textbf {Theorem}}{7}{}}{12}}
\@writefile{thm}{\contentsline {Definition}{{\underline {Definition}}{8}{}}{12}}
\@writefile{thm}{\contentsline {Theorem}{{\textbf {Theorem}}{8}{}}{12}}
\@writefile{thm}{\contentsline {Exercise}{{\underline {Exercise}}{4}{10}}{13}}
\@writefile{thm}{\contentsline {Theorem}{{\textbf {Theorem}}{9}{Stability Theorem}}{14}}
\@writefile{thm}{\contentsline {Proof}{{\underline {Proof}}{8}{}}{15}}
\global\def\markviiiProof{\ensuremath {\square }}
\@writefile{thm}{\contentsline {Example}{{\underline {Example}}{16}{}}{15}}
\@writefile{thm}{\contentsline {Theorem}{{\textbf {Theorem}}{10}{Brown-Sard}}{17}}
\@writefile{thm}{\contentsline {Theorem}{{\textbf {Theorem}}{11}{Stability Thm}}{17}}
\@writefile{thm}{\contentsline {Example}{{\underline {Example}}{17}{}}{17}}
\@writefile{thm}{\contentsline {Definition}{{\underline {Definition}}{9}{}}{17}}
\@writefile{thm}{\contentsline {Example}{{\underline {Example}}{18}{}}{18}}
\@writefile{thm}{\contentsline {Theorem}{{\textbf {Theorem}}{12}{}}{18}}
\@writefile{thm}{\contentsline {Theorem}{{\textbf {Theorem}}{13}{Whitney}}{18}}
\@writefile{thm}{\contentsline {Proof}{{\underline {Proof}}{9}{}}{18}}
\global\def\markixProofi{\ensuremath {\square }}
\@writefile{thm}{\contentsline {Example}{{\underline {Example}}{19}{}}{19}}
\@writefile{thm}{\contentsline {Question}{{\underline {Question}}{1}{}}{20}}
\@writefile{thm}{\contentsline {Definition}{{\underline {Definition}}{10}{}}{20}}
\@writefile{thm}{\contentsline {Theorem}{{\textbf {Theorem}}{14}{}}{20}}
\@writefile{thm}{\contentsline {Proof}{{\underline {Proof}}{10}{}}{21}}
\@writefile{thm}{\contentsline {Example}{{\underline {Example}}{20}{}}{21}}
\@writefile{thm}{\contentsline {Lemma}{{\textbf {Lemma}}{2}{}}{22}}
\@writefile{thm}{\contentsline {Proof}{{\underline {Proof}}{11}{}}{22}}
\@writefile{thm}{\contentsline {Theorem}{{\textbf {Theorem}}{15}{}}{22}}
