\relax 
\@writefile{thm}{\contentsline {Problem}{{Problem}{1}{3.6.1}}{1}}
\@writefile{thm}{\contentsline {Proof}{{\underline {Proof}}{1}{}}{1}}
\@writefile{thm}{\contentsline {Problem}{{Problem}{2}{3.6.2}}{1}}
\@writefile{thm}{\contentsline {Proof}{{\underline {Proof}}{2}{}}{1}}
\@writefile{thm}{\contentsline {Problem}{{Problem}{3}{3.6.3}}{2}}
\@writefile{thm}{\contentsline {Proof}{{\underline {Proof}}{3}{}}{2}}
\@writefile{thm}{\contentsline {Problem}{{Problem}{4}{3.6.4}}{2}}
\@writefile{thm}{\contentsline {Proof}{{\underline {Proof}}{4}{}}{2}}
\@writefile{thm}{\contentsline {Problem}{{Problem}{5}{3.6.5}}{2}}
\@writefile{thm}{\contentsline {Proof}{{\underline {Proof}}{5}{}}{2}}
\@writefile{thm}{\contentsline {Problem}{{Problem}{6}{3.6.6}}{2}}
\@writefile{thm}{\contentsline {Proof}{{\underline {Proof}}{6}{}}{2}}
\@writefile{thm}{\contentsline {Lemma}{{\textbf {Lemma}}{1}{}}{3}}
\@writefile{thm}{\contentsline {Proof}{{\underline {Proof}}{7}{}}{3}}
\@writefile{thm}{\contentsline {Problem}{{Problem}{7}{3.6.7}}{4}}
\@writefile{thm}{\contentsline {Problem}{{Problem}{8}{3.6.8}}{4}}
\@writefile{thm}{\contentsline {Proof}{{\underline {Proof}}{8}{}}{4}}
\@writefile{thm}{\contentsline {Problem}{{Problem}{9}{3.6.9}}{6}}
\@writefile{thm}{\contentsline {Proof}{{\underline {Proof}}{9}{}}{6}}
