\relax 
\@writefile{thm}{\contentsline {Problem}{{Problem}{1}{}}{1}}
\@writefile{thm}{\contentsline {Solution}{{\underline {Solution}}{1}{}}{1}}
\global\def\markiSolution{\ensuremath {\square }}
\@writefile{thm}{\contentsline {Problem}{{Problem}{2}{}}{1}}
\@writefile{thm}{\contentsline {Solution}{{\underline {Solution}}{2}{}}{1}}
\global\def\markiiSolutioni{\ensuremath {\square }}
\@writefile{thm}{\contentsline {Problem}{{Problem}{3}{}}{2}}
\@writefile{thm}{\contentsline {Solution}{{\underline {Solution}}{3}{}}{2}}
\@writefile{thm}{\contentsline {Problem}{{Problem}{4}{}}{2}}
\@writefile{thm}{\contentsline {Solution}{{\underline {Solution}}{4}{}}{2}}
\@writefile{thm}{\contentsline {Problem}{{Problem}{5}{}}{3}}
\@writefile{thm}{\contentsline {Solution}{{\underline {Solution}}{5}{}}{3}}
