\relax 
\@writefile{thm}{\contentsline {Problem}{{Problem}{1}{1.3.2}}{1}}
\@writefile{thm}{\contentsline {Solution}{{\underline {Solution}}{1}{}}{1}}
\@writefile{thm}{\contentsline {Problem}{{Problem}{2}{1.3.7}}{1}}
\@writefile{thm}{\contentsline {Solution}{{\underline {Solution}}{2}{a}}{1}}
\@writefile{thm}{\contentsline {Solution}{{\underline {Solution}}{3}{b}}{1}}
\global\def\markiiiSolution{\ensuremath {\square }}
\@writefile{thm}{\contentsline {Problem}{{Problem}{3}{1.3.10}}{1}}
\@writefile{thm}{\contentsline {Solution}{{\underline {Solution}}{4}{}}{1}}
\@writefile{thm}{\contentsline {Problem}{{Problem}{4}{1.4.1}}{2}}
\@writefile{thm}{\contentsline {Solution}{{\underline {Solution}}{5}{}}{2}}
\@writefile{thm}{\contentsline {Problem}{{Problem}{5}{1.4.2}}{2}}
\@writefile{thm}{\contentsline {Solution}{{\underline {Solution}}{6}{a}}{2}}
\@writefile{thm}{\contentsline {Solution}{{\underline {Solution}}{7}{b}}{2}}
\@writefile{thm}{\contentsline {Problem}{{Problem}{6}{1.4.7}}{2}}
\@writefile{thm}{\contentsline {Solution}{{\underline {Solution}}{8}{}}{2}}
\@writefile{thm}{\contentsline {Problem}{{Problem}{7}{1.4.12}}{3}}
\@writefile{thm}{\contentsline {Solution}{{\underline {Solution}}{9}{}}{3}}
\@writefile{thm}{\contentsline {Problem}{{Problem}{8}{1.4.13}}{3}}
\@writefile{thm}{\contentsline {Solution}{{\underline {Solution}}{10}{}}{3}}
