\relax 
\@writefile{thm}{\contentsline {Problem}{{Problem}{1}{5.7}}{1}}
\@writefile{thm}{\contentsline {Proof}{{\underline {Proof}}{1}{}}{1}}
\global\def\markiProof{\ensuremath {\square }}
\@writefile{thm}{\contentsline {Problem}{{Problem}{2}{5.11}}{1}}
\@writefile{thm}{\contentsline {Proof}{{\underline {Proof}}{2}{}}{1}}
\@writefile{thm}{\contentsline {Problem}{{Problem}{3}{6.3}}{1}}
\@writefile{thm}{\contentsline {Proof}{{\underline {Proof}}{3}{}}{1}}
\@writefile{thm}{\contentsline {Problem}{{Problem}{4}{6.7}}{1}}
\@writefile{thm}{\contentsline {Proof}{{\underline {Proof}}{4}{}}{1}}
\@writefile{thm}{\contentsline {Problem}{{Problem}{5}{6.9}}{2}}
\@writefile{thm}{\contentsline {Proof}{{\underline {Proof}}{5}{}}{2}}
\@writefile{thm}{\contentsline {Problem}{{Problem}{6}{6.10}}{2}}
\@writefile{thm}{\contentsline {Proof}{{\underline {Proof}}{6}{}}{2}}
\@writefile{thm}{\contentsline {Problem}{{Problem}{7}{6.11}}{2}}
\@writefile{thm}{\contentsline {Proof}{{\underline {Proof}}{7}{}}{2}}
\@writefile{thm}{\contentsline {Problem}{{Problem}{8}{7.6}}{3}}
\@writefile{thm}{\contentsline {Proof}{{\underline {Proof}}{8}{}}{3}}
\@writefile{thm}{\contentsline {Problem}{{Problem}{9}{7.7}}{3}}
\@writefile{thm}{\contentsline {Proof}{{\underline {Proof}}{9}{}}{3}}
