\relax 
\@writefile{thm}{\contentsline {Problem}{{Problem}{1}{1.8.7}}{1}}
\@writefile{thm}{\contentsline {Proof}{{\underline {Proof}}{1}{}}{1}}
\@writefile{thm}{\contentsline {Problem}{{Problem}{2}{1.8.8}}{1}}
\@writefile{thm}{\contentsline {Proof}{{\underline {Proof}}{2}{}}{1}}
\@writefile{thm}{\contentsline {Problem}{{Problem}{3}{1.8.9}}{1}}
\@writefile{thm}{\contentsline {Proof}{{\underline {Proof}}{3}{}}{1}}
\@writefile{thm}{\contentsline {Problem}{{Problem}{4}{1.8.14}}{1}}
\@writefile{thm}{\contentsline {Proof}{{\underline {Proof}}{4}{}}{1}}
\@writefile{thm}{\contentsline {Problem}{{Problem}{5}{2.1.7}}{2}}
\@writefile{thm}{\contentsline {Solution}{{\underline {Solution}}{1}{}}{2}}
\@writefile{thm}{\contentsline {Lemma}{{\textbf {Lemma}}{1}{}}{2}}
\@writefile{thm}{\contentsline {Proof}{{\underline {Proof}}{5}{}}{2}}
\@writefile{thm}{\contentsline {Problem}{{Problem}{6}{2.1.7}}{4}}
\@writefile{thm}{\contentsline {Proof}{{\underline {Proof}}{6}{}}{4}}
\@writefile{thm}{\contentsline {Problem}{{Problem}{7}{2.1.10}}{4}}
\@writefile{thm}{\contentsline {Proof}{{\underline {Proof}}{7}{}}{4}}
\@writefile{thm}{\contentsline {Problem}{{Problem}{8}{2.1.11}}{4}}
\@writefile{thm}{\contentsline {Proof}{{\underline {Proof}}{8}{}}{4}}
\@writefile{thm}{\contentsline {Problem}{{Problem}{9}{2.2.3}}{4}}
\@writefile{thm}{\contentsline {Proof}{{\underline {Proof}}{9}{}}{4}}
\@writefile{thm}{\contentsline {Problem}{{Problem}{10}{2.2.7}}{4}}
\@writefile{thm}{\contentsline {Proof}{{\underline {Proof}}{10}{}}{4}}
