\relax 
\@writefile{thm}{\contentsline {Problem}{{Problem}{1}{3.2.1}}{1}}
\@writefile{thm}{\contentsline {Proof}{{\underline {Proof}}{1}{}}{1}}
\@writefile{thm}{\contentsline {Problem}{{Problem}{2}{3.2.7}}{1}}
\@writefile{thm}{\contentsline {Proof}{{\underline {Proof}}{2}{}}{1}}
\@writefile{thm}{\contentsline {Problem}{{Problem}{3}{2.3.12}}{1}}
\@writefile{thm}{\contentsline {Proof}{{\underline {Proof}}{3}{}}{1}}
\@writefile{thm}{\contentsline {Problem}{{Problem}{4}{2.3.14}}{2}}
\@writefile{thm}{\contentsline {Proof}{{\underline {Proof}}{4}{}}{2}}
\@writefile{thm}{\contentsline {Problem}{{Problem}{5}{2.3.16}}{2}}
\@writefile{thm}{\contentsline {Proof}{{\underline {Proof}}{5}{}}{2}}
\@writefile{thm}{\contentsline {Problem}{{Problem}{6}{2.3.18}}{2}}
\@writefile{thm}{\contentsline {Proof}{{\underline {Proof}}{6}{}}{2}}
\@writefile{thm}{\contentsline {Problem}{{Problem}{7}{2.3.19}}{2}}
\@writefile{thm}{\contentsline {Proof}{{\underline {Proof}}{7}{}}{2}}
\@writefile{thm}{\contentsline {Problem}{{Problem}{8}{2.3.20}}{2}}
\@writefile{thm}{\contentsline {Proof}{{\underline {Proof}}{8}{}}{2}}
