\relax 
\@writefile{thm}{\contentsline {Problem}{{Problem}{1}{2.4.3}}{1}}
\@writefile{thm}{\contentsline {Proof}{{\underline {Proof}}{1}{a}}{1}}
\@writefile{thm}{\contentsline {Proof}{{\underline {Proof}}{2}{b}}{1}}
\global\def\markiiProof{\ensuremath {\square }}
\@writefile{thm}{\contentsline {Proof}{{\underline {Proof}}{3}{c}}{1}}
\@writefile{thm}{\contentsline {Proof}{{\underline {Proof}}{4}{d}}{1}}
\global\def\markivProof{\ensuremath {\square }}
\@writefile{thm}{\contentsline {Problem}{{Problem}{2}{2.4.4}}{1}}
\@writefile{thm}{\contentsline {Proof}{{\underline {Proof}}{5}{}}{1}}
\@writefile{thm}{\contentsline {Problem}{{Problem}{3}{2.4.5}}{1}}
\@writefile{thm}{\contentsline {Proof}{{\underline {Proof}}{6}{}}{1}}
\@writefile{thm}{\contentsline {Problem}{{Problem}{4}{2.4.6}}{1}}
\@writefile{thm}{\contentsline {Proof}{{\underline {Proof}}{7}{}}{1}}
\@writefile{thm}{\contentsline {Problem}{{Problem}{5}{2.4.9}}{1}}
\@writefile{thm}{\contentsline {Proof}{{\underline {Proof}}{8}{}}{1}}
\@writefile{thm}{\contentsline {Problem}{{Problem}{6}{2.4.11}}{2}}
\@writefile{thm}{\contentsline {Proof}{{\underline {Proof}}{9}{}}{2}}
\@writefile{thm}{\contentsline {Problem}{{Problem}{7}{2.4.12}}{2}}
\@writefile{thm}{\contentsline {Proof}{{\underline {Proof}}{10}{}}{2}}
\@writefile{thm}{\contentsline {Problem}{{Problem}{8}{2.4.16}}{2}}
\@writefile{thm}{\contentsline {Proof}{{\underline {Proof}}{11}{}}{2}}
\@writefile{thm}{\contentsline {Problem}{{Problem}{9}{2.4.17}}{2}}
\@writefile{thm}{\contentsline {Proof}{{\underline {Proof}}{12}{}}{2}}
