\relax 
\@writefile{thm}{\contentsline {Problem}{{Problem}{1}{2.5.1}}{1}}
\@writefile{thm}{\contentsline {Proof}{{\underline {Proof}}{1}{}}{1}}
\@writefile{thm}{\contentsline {Problem}{{Problem}{2}{2.5.2}}{1}}
\@writefile{thm}{\contentsline {Proof}{{\underline {Proof}}{2}{}}{1}}
\global\def\markiiProof{\ensuremath {\square }}
\@writefile{thm}{\contentsline {Problem}{{Problem}{3}{2.5.3}}{1}}
\@writefile{thm}{\contentsline {Proof}{{\underline {Proof}}{3}{}}{1}}
