\relax 
\@writefile{thm}{\contentsline {Problem}{{Problem}{1}{3.2.2}}{1}}
\@writefile{thm}{\contentsline {Proof}{{\underline {Proof}}{1}{a}}{1}}
\@writefile{thm}{\contentsline {Proof}{{\underline {Proof}}{2}{b}}{1}}
\@writefile{thm}{\contentsline {Proof}{{\underline {Proof}}{3}{c}}{1}}
\@writefile{thm}{\contentsline {Problem}{{Problem}{2}{3.2.13}}{2}}
\@writefile{thm}{\contentsline {Proof}{{\underline {Proof}}{4}{}}{2}}
\@writefile{thm}{\contentsline {Problem}{{Problem}{3}{3.2.14}}{2}}
\@writefile{thm}{\contentsline {Proof}{{\underline {Proof}}{5}{}}{2}}
\@writefile{thm}{\contentsline {Problem}{{Problem}{4}{3.2.18}}{2}}
\@writefile{thm}{\contentsline {Proof}{{\underline {Proof}}{6}{$a \Leftrightarrow b$}}{2}}
\global\def\markviProof{\ensuremath {\square }}
\@writefile{thm}{\contentsline {Proof}{{\underline {Proof}}{7}{$b \Leftrightarrow c$}}{2}}
\@writefile{thm}{\contentsline {Proof}{{\underline {Proof}}{8}{$c \Leftrightarrow d$}}{2}}
