\relax 
\@writefile{thm}{\contentsline {Definition}{{\underline {Definition}}{1}{}}{1}}
\@writefile{thm}{\contentsline {Theorem}{{\textbf {Theorem}}{1}{}}{2}}
\@writefile{thm}{\contentsline {Proof}{{\underline {Proof}}{1}{}}{2}}
\@writefile{thm}{\contentsline {Example}{{\underline {Example}}{1}{}}{2}}
\@writefile{thm}{\contentsline {Lemma}{{\textbf {Lemma}}{1}{}}{3}}
\@writefile{thm}{\contentsline {Proof}{{\underline {Proof}}{2}{}}{3}}
\@writefile{thm}{\contentsline {Theorem}{{\textbf {Theorem}}{2}{}}{3}}
