\relax 
\@writefile{thm}{\contentsline {Theorem}{{\textbf {Theorem}}{1}{Stability Thm}}{1}}
\@writefile{thm}{\contentsline {Example}{{\underline {Example}}{1}{}}{1}}
\@writefile{thm}{\contentsline {Definition}{{\underline {Definition}}{1}{}}{1}}
\@writefile{thm}{\contentsline {Example}{{\underline {Example}}{2}{}}{2}}
\@writefile{thm}{\contentsline {Theorem}{{\textbf {Theorem}}{2}{}}{2}}
\@writefile{thm}{\contentsline {Theorem}{{\textbf {Theorem}}{3}{Whitney}}{2}}
\@writefile{thm}{\contentsline {Proof}{{\underline {Proof}}{1}{}}{2}}
\global\def\markiProof{\ensuremath {\square }}
\@writefile{thm}{\contentsline {Example}{{\underline {Example}}{3}{}}{3}}
\@writefile{thm}{\contentsline {Question}{{\underline {Question}}{1}{}}{3}}
