\relax 
\@writefile{thm}{\contentsline {Theorem}{{\textbf {Theorem}}{1}{Stability Theorem}}{2}}
\@writefile{thm}{\contentsline {Proof}{{\underline {Proof}}{1}{}}{2}}
\global\def\markiProof{\ensuremath {\square }}
\@writefile{thm}{\contentsline {Example}{{\underline {Example}}{1}{}}{2}}
