\contentsline {chapter}{\numberline {1}Algebra}{3}{chapter.1}
\contentsline {section}{\numberline {1.1}Gram-Schmidt}{3}{section.1.1}
\contentsline {section}{\numberline {1.2}QR-Decomposition}{3}{section.1.2}
\contentsline {section}{\numberline {1.3}Cauchy-Schwarz}{4}{section.1.3}
\contentsline {section}{\numberline {1.4}Spectral Theorem}{4}{section.1.4}
\contentsline {section}{\numberline {1.5}Rational Canonical Form}{7}{section.1.5}
\contentsline {section}{\numberline {1.6}Jordan Canonical Form}{12}{section.1.6}
\contentsline {section}{\numberline {1.7}LU-Decomposition}{14}{section.1.7}
\contentsline {section}{\numberline {1.8}Rank-Nullity Theorem}{14}{section.1.8}
\contentsline {section}{\numberline {1.9}Lagrange Polynomials}{15}{section.1.9}
\contentsline {subsubsection}{Hermite Interpolation}{15}{section*.2}
\contentsline {section}{\numberline {1.10}Equivalent Formulations of Isometry}{16}{section.1.10}
\contentsline {section}{\numberline {1.11}Polar Decomposition}{16}{section.1.11}
\contentsline {chapter}{\numberline {2}Analysis}{17}{chapter.2}
\contentsline {section}{\numberline {2.1}$|\mathbb R|=2^{\aleph _0}$}{17}{section.2.1}
\contentsline {section}{\numberline {2.2}$\mathbb R$ is complete}{17}{section.2.2}
\contentsline {section}{\numberline {2.3}Monotone Convergence Theorem}{17}{section.2.3}
\contentsline {section}{\numberline {2.4}Cantor Intersection Theroem}{18}{section.2.4}
\contentsline {section}{\numberline {2.5}Bolzano-Weierstra$\ss $ }{18}{section.2.5}
\contentsline {section}{\numberline {2.6}Heine-Borel}{18}{section.2.6}
\contentsline {section}{\numberline {2.7}Compactness vs. Sequential Compactness}{20}{section.2.7}
\contentsline {section}{\numberline {2.8}Continuity on Compact Sets Implies Uniform Continuity}{22}{section.2.8}
\contentsline {section}{\numberline {2.9}Arzela-Ascoli Theorem}{22}{section.2.9}
\contentsline {section}{\numberline {2.10}Continuous functions are Riemann integrable}{25}{section.2.10}
\contentsline {section}{\numberline {2.11}Fundamental Theorem of Calculus}{27}{section.2.11}
\contentsline {section}{\numberline {2.12}Baire Category Theorem}{27}{section.2.12}
\contentsline {section}{\numberline {2.13}Stone-Weierstra$\ss $ }{29}{section.2.13}
\contentsline {section}{\numberline {2.14}Intermediate Value Theorem}{29}{section.2.14}
\contentsline {section}{\numberline {2.15}Mean Value Theorem}{29}{section.2.15}
\contentsline {section}{\numberline {2.16}Inverse Function Theorem}{29}{section.2.16}
\contentsline {section}{\numberline {2.17}Implicit Function Theorem}{30}{section.2.17}
\contentsline {section}{\numberline {2.18}Conditions on Equality of Mixed Partials}{31}{section.2.18}
\contentsline {section}{\numberline {2.19}Taylor Remainder Theorem}{32}{section.2.19}
\contentsline {section}{\numberline {2.20}Completeness of $C(X)$}{32}{section.2.20}
\contentsline {section}{\numberline {2.21}Weierstra$\ss $ M-Test}{33}{section.2.21}
\contentsline {section}{\numberline {2.22}Differentiation Under the Integral}{34}{section.2.22}
\contentsline {section}{\numberline {2.23}Lagrange Multipliers}{35}{section.2.23}
\contentsline {section}{\numberline {2.24}Commutation Chart}{36}{section.2.24}
