\relax 
\@writefile{thm}{\contentsline {Problem}{{Problem}{1}{1C.1}}{1}}
\@writefile{thm}{\contentsline {Proof}{{\underline {Proof}}{1}{1C.1.1}}{1}}
\@writefile{thm}{\contentsline {Proof}{{\underline {Proof}}{2}{1C.1.2}}{2}}
\global\def\markiiProof{\ensuremath {\square }}
\@writefile{thm}{\contentsline {Proof}{{\underline {Proof}}{3}{1C.1.3}}{2}}
\global\def\markiiiProof{\ensuremath {\square }}
\@writefile{thm}{\contentsline {Problem}{{Problem}{2}{1C.4}}{3}}
\@writefile{thm}{\contentsline {Proof}{{\underline {Proof}}{4}{}}{3}}
\@writefile{thm}{\contentsline {Problem}{{Problem}{3}{1C.5}}{3}}
\@writefile{thm}{\contentsline {Proof}{{\underline {Proof}}{5}{}}{3}}
\@writefile{thm}{\contentsline {Problem}{{Problem}{4}{11.F 1}}{3}}
\@writefile{thm}{\contentsline {Proof}{{\underline {Proof}}{6}{b}}{3}}
\@writefile{thm}{\contentsline {Proof}{{\underline {Proof}}{7}{c}}{3}}
\@writefile{thm}{\contentsline {Proof}{{\underline {Proof}}{8}{d}}{3}}
