\relax 
\@writefile{thm}{\contentsline {Problem}{{Problem}{1}{1D.2}}{1}}
\@writefile{thm}{\contentsline {Proof}{{\underline {Proof}}{1}{}}{1}}
\global\def\markiProof{\ensuremath {\square }}
\@writefile{thm}{\contentsline {Problem}{{Problem}{2}{1D.3}}{1}}
\@writefile{thm}{\contentsline {Proof}{{\underline {Proof}}{2}{}}{1}}
\global\def\markiiProof{\ensuremath {\square }}
\@writefile{thm}{\contentsline {Problem}{{Problem}{3}{1E.1}}{1}}
\@writefile{thm}{\contentsline {Proof}{{\underline {Proof}}{3}{}}{1}}
\global\def\markiiiProof{\ensuremath {\square }}
\@writefile{thm}{\contentsline {Problem}{{Problem}{4}{1E.2}}{1}}
\@writefile{thm}{\contentsline {Proof}{{\underline {Proof}}{4}{1}}{1}}
\global\def\markivProof{\ensuremath {\square }}
\@writefile{thm}{\contentsline {Proof}{{\underline {Proof}}{5}{2}}{1}}
\global\def\markvProof{\ensuremath {\square }}
\@writefile{thm}{\contentsline {Proof}{{\underline {Proof}}{6}{3}}{2}}
\global\def\markviProof{\ensuremath {\square }}
\@writefile{thm}{\contentsline {Problem}{{Problem}{5}{1E.4}}{2}}
\@writefile{thm}{\contentsline {Proof}{{\underline {Proof}}{7}{}}{2}}
\@writefile{thm}{\contentsline {Problem}{{Problem}{6}{1E.6}}{2}}
\@writefile{thm}{\contentsline {Proof}{{\underline {Proof}}{8}{}}{2}}
\@writefile{thm}{\contentsline {Problem}{{Problem}{7}{1E.9}}{3}}
\@writefile{thm}{\contentsline {Proof}{{\underline {Proof}}{9}{}}{3}}
\global\def\markixProof{\ensuremath {\square }}
