\relax 
\@writefile{thm}{\contentsline {Problem}{{Problem}{1}{1E.10}}{1}}
\@writefile{thm}{\contentsline {Proof}{{\underline {Proof}}{1}{}}{1}}
\@writefile{thm}{\contentsline {Problem}{{Problem}{2}{1E.11}}{1}}
\@writefile{thm}{\contentsline {Proof}{{\underline {Proof}}{2}{}}{1}}
\global\def\markiiProofi{\ensuremath {\square }}
\@writefile{thm}{\contentsline {Problem}{{Problem}{3}{1F.1}}{2}}
\@writefile{thm}{\contentsline {Proof}{{\underline {Proof}}{3}{}}{2}}
\@writefile{thm}{\contentsline {Problem}{{Problem}{4}{1F.2}}{2}}
\@writefile{thm}{\contentsline {Proof}{{\underline {Proof}}{4}{}}{2}}
\global\def\markivProofi{\ensuremath {\square }}
\@writefile{thm}{\contentsline {Problem}{{Problem}{5}{1F.3}}{2}}
\@writefile{thm}{\contentsline {Proof}{{\underline {Proof}}{5}{}}{2}}
\global\def\markvProofi{\ensuremath {\square }}
\@writefile{thm}{\contentsline {Problem}{{Problem}{6}{1F.4}}{3}}
\@writefile{thm}{\contentsline {Proof}{{\underline {Proof}}{6}{}}{3}}
\@writefile{thm}{\contentsline {Problem}{{Problem}{7}{1F.5}}{3}}
\@writefile{thm}{\contentsline {Proof}{{\underline {Proof}}{7}{}}{3}}
\global\def\markviiProof{\ensuremath {\square }}
