\relax 
\@writefile{thm}{\contentsline {Problem}{{Problem}{1}{1F.6}}{1}}
\@writefile{thm}{\contentsline {Proof}{{\underline {Proof}}{1}{}}{1}}
\@writefile{thm}{\contentsline {Problem}{{Problem}{2}{1G.1}}{2}}
\@writefile{thm}{\contentsline {Proof}{{\underline {Proof}}{2}{}}{2}}
\@writefile{thm}{\contentsline {Problem}{{Problem}{3}{1G.3}}{2}}
\@writefile{thm}{\contentsline {Proof}{{\underline {Proof}}{3}{}}{2}}
\global\def\markiiiProofii{\ensuremath {\square }}
\@writefile{thm}{\contentsline {Problem}{{Problem}{4}{1H.1}}{2}}
\@writefile{thm}{\contentsline {Proof}{{\underline {Proof}}{4}{}}{2}}
\@writefile{thm}{\contentsline {Problem}{{Problem}{5}{1H.2}}{2}}
\@writefile{thm}{\contentsline {Proof}{{\underline {Proof}}{5}{}}{2}}
\@writefile{thm}{\contentsline {Problem}{{Problem}{6}{S11.2a}}{2}}
\@writefile{thm}{\contentsline {Proof}{{\underline {Proof}}{6}{}}{2}}
\global\def\markviProof{\ensuremath {\square }}
