\relax 
\@writefile{thm}{\contentsline {Problem}{{Problem}{1}{1H.8}}{1}}
\@writefile{thm}{\contentsline {Proof}{{\underline {Proof}}{1}{}}{1}}
\global\def\markiProofi{\ensuremath {\square }}
\@writefile{thm}{\contentsline {Problem}{{Problem}{2}{1I.1}}{1}}
\@writefile{thm}{\contentsline {Proof}{{\underline {Proof}}{2}{}}{1}}
\@writefile{thm}{\contentsline {Problem}{{Problem}{3}{1J.3}}{1}}
\@writefile{thm}{\contentsline {Proof}{{\underline {Proof}}{3}{}}{1}}
\global\def\markiiiProofi{\ensuremath {\square }}
\@writefile{thm}{\contentsline {Problem}{{Problem}{4}{1J.4}}{1}}
\@writefile{thm}{\contentsline {Proof}{{\underline {Proof}}{4}{}}{2}}
\@writefile{thm}{\contentsline {Problem}{{Problem}{5}{1J.5}}{2}}
\@writefile{thm}{\contentsline {Proof}{{\underline {Proof}}{5}{}}{2}}
\@writefile{thm}{\contentsline {Problem}{{Problem}{6}{1J.6}}{2}}
\@writefile{thm}{\contentsline {Proof}{{\underline {Proof}}{6}{}}{2}}
\@writefile{thm}{\contentsline {Problem}{{Problem}{7}{1J.7}}{2}}
\@writefile{thm}{\contentsline {Proof}{{\underline {Proof}}{7}{}}{2}}
\@writefile{thm}{\contentsline {Problem}{{Problem}{8}{1J.8}}{3}}
\@writefile{thm}{\contentsline {Proof}{{\underline {Proof}}{8}{}}{3}}
