\relax 
\@writefile{thm}{\contentsline {Problem}{{Problem}{1}{1J.9}}{1}}
\@writefile{thm}{\contentsline {Proof}{{\underline {Proof}}{1}{}}{1}}
\@writefile{thm}{\contentsline {Problem}{{Problem}{2}{1J.10}}{1}}
\@writefile{thm}{\contentsline {Proof}{{\underline {Proof}}{2}{1}}{1}}
\@writefile{thm}{\contentsline {Proof}{{\underline {Proof}}{3}{2}}{1}}
\global\def\markiiiProofii{\ensuremath {\square }}
\@writefile{thm}{\contentsline {Proof}{{\underline {Proof}}{4}{3}}{2}}
\@writefile{thm}{\contentsline {Problem}{{Problem}{3}{2A.1}}{2}}
\@writefile{thm}{\contentsline {Proof}{{\underline {Proof}}{5}{}}{2}}
\@writefile{thm}{\contentsline {Problem}{{Problem}{4}{2A.2}}{2}}
\@writefile{thm}{\contentsline {Proof}{{\underline {Proof}}{6}{}}{2}}
\@writefile{thm}{\contentsline {Problem}{{Problem}{5}{2A.4}}{2}}
\@writefile{thm}{\contentsline {Proof}{{\underline {Proof}}{7}{}}{2}}
\global\def\markviiProofi{\ensuremath {\square }}
\@writefile{thm}{\contentsline {Problem}{{Problem}{6}{2A.5}}{3}}
\@writefile{thm}{\contentsline {Proof}{{\underline {Proof}}{8}{}}{3}}
\@writefile{thm}{\contentsline {Problem}{{Problem}{7}{2B.1}}{3}}
\@writefile{thm}{\contentsline {Proof}{{\underline {Proof}}{9}{}}{3}}
