\relax 
\@writefile{thm}{\contentsline {Lemma}{{\textbf {Lemma}}{1}{1}}{1}}
\@writefile{thm}{\contentsline {Proof}{{\underline {Proof}}{1}{}}{1}}
\@writefile{thm}{\contentsline {Problem}{{Problem}{1}{2C.1}}{1}}
\@writefile{thm}{\contentsline {Proof}{{\underline {Proof}}{2}{}}{1}}
\@writefile{thm}{\contentsline {Problem}{{Problem}{2}{2C.2}}{1}}
\@writefile{thm}{\contentsline {Proof}{{\underline {Proof}}{3}{}}{2}}
\@writefile{thm}{\contentsline {Proof}{{\underline {Proof}}{4}{\textit {Outline}}}{2}}
\@writefile{thm}{\contentsline {Problem}{{Problem}{3}{2C.3}}{2}}
\@writefile{thm}{\contentsline {Proof}{{\underline {Proof}}{5}{}}{2}}
\@writefile{thm}{\contentsline {Problem}{{Problem}{4}{2C.4}}{2}}
\@writefile{thm}{\contentsline {Proof}{{\underline {Proof}}{6}{}}{2}}
\@writefile{thm}{\contentsline {Lemma}{{\textbf {Lemma}}{2}{2}}{3}}
\@writefile{thm}{\contentsline {Proof}{{\underline {Proof}}{7}{}}{3}}
\@writefile{thm}{\contentsline {Corollary}{{\textbf {Corollary}}{1}{}}{3}}
\@writefile{thm}{\contentsline {Lemma}{{\textbf {Lemma}}{3}{3}}{3}}
\@writefile{thm}{\contentsline {Proof}{{\underline {Proof}}{8}{}}{3}}
\@writefile{thm}{\contentsline {Corollary}{{\textbf {Corollary}}{2}{}}{4}}
\@writefile{thm}{\contentsline {Proof}{{\underline {Proof}}{9}{}}{4}}
\@writefile{thm}{\contentsline {Problem}{{Problem}{5}{2C.5}}{4}}
\@writefile{thm}{\contentsline {Proof}{{\underline {Proof}}{10}{}}{4}}
\@writefile{thm}{\contentsline {Proof}{{\underline {Proof}}{11}{\textit {Outline}}}{4}}
\@writefile{thm}{\contentsline {Problem}{{Problem}{6}{F01.2}}{5}}
\@writefile{thm}{\contentsline {Proof}{{\underline {Proof}}{12}{}}{5}}
\@writefile{thm}{\contentsline {Problem}{{Problem}{7}{F02.7}}{5}}
\@writefile{thm}{\contentsline {Proof}{{\underline {Proof}}{13}{a}}{5}}
\@writefile{thm}{\contentsline {Proof}{{\underline {Proof}}{14}{b}}{5}}
