\relax 
\@writefile{thm}{\contentsline {Lemma}{{\textbf {Lemma}}{1}{1}}{1}}
\@writefile{thm}{\contentsline {Proof}{{\underline {Proof}}{1}{}}{1}}
\@writefile{thm}{\contentsline {Problem}{{Problem}{1}{2C.1}}{1}}
\@writefile{thm}{\contentsline {Proof}{{\underline {Proof}}{2}{}}{1}}
\@writefile{thm}{\contentsline {Problem}{{Problem}{2}{2C.2}}{1}}
\@writefile{thm}{\contentsline {Proof}{{\underline {Proof}}{3}{\textit {Outline}}}{2}}
\@writefile{thm}{\contentsline {Problem}{{Problem}{3}{2C.3}}{2}}
\@writefile{thm}{\contentsline {Proof}{{\underline {Proof}}{4}{}}{2}}
\@writefile{thm}{\contentsline {Problem}{{Problem}{4}{2C.4}}{2}}
\@writefile{thm}{\contentsline {Proof}{{\underline {Proof}}{5}{}}{2}}
\@writefile{thm}{\contentsline {Problem}{{Problem}{5}{2C.5}}{2}}
\@writefile{thm}{\contentsline {Proof}{{\underline {Proof}}{6}{\textit {Outline}}}{2}}
\@writefile{thm}{\contentsline {Problem}{{Problem}{6}{F01.2}}{3}}
\@writefile{thm}{\contentsline {Proof}{{\underline {Proof}}{7}{}}{3}}
\@writefile{thm}{\contentsline {Problem}{{Problem}{7}{F02.7}}{3}}
\@writefile{thm}{\contentsline {Proof}{{\underline {Proof}}{8}{a}}{3}}
\@writefile{thm}{\contentsline {Proof}{{\underline {Proof}}{9}{b}}{3}}
