This is BibTeX, Version 0.99dThe top-level auxiliary file: C:\stuff\kitchen\cygwin\home\Anton\latex-notes\classes\UCLA - Math 220A\HW8.aux
I found no \citation commands---while reading file C:\stuff\kitchen\cygwin\home\Anton\latex-notes\classes\UCLA - Math 220A\HW8.aux
I found no \bibdata command---while reading file C:\stuff\kitchen\cygwin\home\Anton\latex-notes\classes\UCLA - Math 220A\HW8.aux
I found no \bibstyle command---while reading file C:\stuff\kitchen\cygwin\home\Anton\latex-notes\classes\UCLA - Math 220A\HW8.aux
(There were 3 error messages)
