\relax 
\@writefile{thm}{\contentsline {Problem}{{Problem}{1}{2G.1}}{1}}
\@writefile{thm}{\contentsline {Proof}{{\underline {Proof}}{1}{}}{1}}
\@writefile{thm}{\contentsline {Problem}{{Problem}{2}{F01.4}}{1}}
\@writefile{thm}{\contentsline {Proof}{{\underline {Proof}}{2}{}}{1}}
\@writefile{thm}{\contentsline {Problem}{{Problem}{3}{F01.5}}{2}}
\@writefile{thm}{\contentsline {Proof}{{\underline {Proof}}{3}{}}{2}}
\@writefile{thm}{\contentsline {Problem}{{Problem}{4}{W03.1}}{3}}
\@writefile{thm}{\contentsline {Proof}{{\underline {Proof}}{4}{}}{3}}
