\relax 
\@writefile{thm}{\contentsline {Problem}{{Problem}{1}{F03.5}}{1}}
\@writefile{thm}{\contentsline {Proof}{{\underline {Proof}}{1}{}}{1}}
\@writefile{thm}{\contentsline {Problem}{{Problem}{2}{F04.1}}{1}}
\@writefile{thm}{\contentsline {Proof}{{\underline {Proof}}{2}{}}{1}}
\@writefile{thm}{\contentsline {Problem}{{Problem}{3}{W04.1}}{1}}
\@writefile{thm}{\contentsline {Proof}{{\underline {Proof}}{3}{}}{1}}
\@writefile{thm}{\contentsline {Problem}{{Problem}{4}{05F.1}}{2}}
\@writefile{thm}{\contentsline {Proof}{{\underline {Proof}}{4}{a}}{2}}
\@writefile{thm}{\contentsline {Proof}{{\underline {Proof}}{5}{b}}{3}}
\@writefile{thm}{\contentsline {Problem}{{Problem}{5}{05F.2}}{3}}
\@writefile{thm}{\contentsline {Proof}{{\underline {Proof}}{6}{}}{3}}
\@writefile{thm}{\contentsline {Problem}{{Problem}{6}{Extra}}{3}}
\@writefile{thm}{\contentsline {Proof}{{\underline {Proof}}{7}{determined by literal part \imply quantifier elimination}}{3}}
\@writefile{thm}{\contentsline {Proof}{{\underline {Proof}}{8}{quantifier elimination \imply determined by literal part}}{3}}
\@writefile{thm}{\contentsline {Note}{{\underline {Note}}{1}{}}{3}}
