\relax 
\@writefile{thm}{\contentsline {Problem}{{Problem}{1}{}}{1}}
\@writefile{thm}{\contentsline {Solution}{{\underline {Solution}}{1}{}}{1}}
\@writefile{thm}{\contentsline {Problem}{{Problem}{2}{}}{1}}
\@writefile{thm}{\contentsline {Solution}{{\underline {Solution}}{2}{}}{1}}
\@writefile{thm}{\contentsline {Problem}{{Problem}{3}{}}{1}}
\@writefile{thm}{\contentsline {Solution}{{\underline {Solution}}{3}{}}{1}}
\@writefile{thm}{\contentsline {Problem}{{Problem}{4}{}}{2}}
\@writefile{thm}{\contentsline {Solution}{{\underline {Solution}}{4}{}}{2}}
\global\def\markivSolutioni{\ensuremath {\square }}
\@writefile{thm}{\contentsline {Problem}{{Problem}{5}{}}{2}}
\@writefile{thm}{\contentsline {Solution}{{\underline {Solution}}{5}{}}{2}}
\@writefile{thm}{\contentsline {Problem}{{Problem}{6}{}}{2}}
\@writefile{thm}{\contentsline {Solution}{{\underline {Solution}}{6}{}}{2}}
\@writefile{thm}{\contentsline {Problem}{{Problem}{7}{}}{2}}
\@writefile{thm}{\contentsline {Solution}{{\underline {Solution}}{7}{}}{2}}
\@writefile{thm}{\contentsline {Problem}{{Problem}{8}{}}{3}}
\@writefile{thm}{\contentsline {Solution}{{\underline {Solution}}{8}{}}{3}}
\@writefile{thm}{\contentsline {Problem}{{Problem}{9}{}}{3}}
\@writefile{thm}{\contentsline {Solution}{{\underline {Solution}}{9}{}}{3}}
\@writefile{thm}{\contentsline {Problem}{{Problem}{10}{}}{3}}
\@writefile{thm}{\contentsline {Solution}{{\underline {Solution}}{10}{}}{3}}
