\relax 
\@writefile{thm}{\contentsline {Problem}{{Problem}{1}{}}{1}}
\@writefile{thm}{\contentsline {Solution}{{\underline {Solution}}{1}{}}{1}}
\@writefile{thm}{\contentsline {Problem}{{Problem}{2}{}}{2}}
\@writefile{thm}{\contentsline {Solution}{{\underline {Solution}}{2}{}}{2}}
\@writefile{thm}{\contentsline {Problem}{{Problem}{3}{}}{3}}
\@writefile{thm}{\contentsline {Solution}{{\underline {Solution}}{3}{}}{3}}
\@writefile{thm}{\contentsline {Problem}{{Problem}{4}{}}{3}}
\@writefile{thm}{\contentsline {Solution}{{\underline {Solution}}{4}{}}{3}}
\@writefile{thm}{\contentsline {Problem}{{Problem}{5}{}}{4}}
\@writefile{thm}{\contentsline {Solution}{{\underline {Solution}}{5}{}}{4}}
\@writefile{thm}{\contentsline {Problem}{{Problem}{6}{}}{4}}
\@writefile{thm}{\contentsline {Solution}{{\underline {Solution}}{6}{}}{4}}
\@writefile{thm}{\contentsline {Problem}{{Problem}{7}{}}{4}}
\@writefile{thm}{\contentsline {Claim}{{\underline {Claim}}{1}{}}{4}}
\@writefile{thm}{\contentsline {Note}{{\underline {Note}}{1}{}}{4}}
\@writefile{thm}{\contentsline {Solution}{{\underline {Solution}}{7}{}}{4}}
\@writefile{thm}{\contentsline {Problem}{{Problem}{8}{}}{5}}
\@writefile{thm}{\contentsline {Solution}{{\underline {Solution}}{8}{}}{5}}
\@writefile{thm}{\contentsline {Problem}{{Problem}{9}{}}{5}}
\@writefile{thm}{\contentsline {Solution}{{\underline {Solution}}{9}{}}{5}}
