\relax 
\@writefile{thm}{\contentsline {Examples}{{\underline {Examples}}{1}{}}{1}}
\@writefile{thm}{\contentsline {Lemma}{{\underline {Lemma}}{1}{}}{2}}
\@writefile{thm}{\contentsline {Proof}{{\underline {Proof}}{1}{}}{2}}
\global\def\markiProofv{\ensuremath {\square }}
\@writefile{thm}{\contentsline {Corollary}{{\underline {Corollary}}{1}{}}{2}}
\@writefile{thm}{\contentsline {Proof}{{\underline {Proof}}{2}{}}{2}}
\@writefile{thm}{\contentsline {Example}{{\underline {Example}}{1}{}}{2}}
\@writefile{thm}{\contentsline {Lemma}{{\underline {Lemma}}{2}{}}{2}}
\@writefile{thm}{\contentsline {Proof}{{\underline {Proof}}{3}{}}{2}}
