\relax 
\@writefile{toc}{\contentsline {section}{\numberline {1}Here's a section}{1}}
\@writefile{toc}{\contentsline {subsection}{\numberline {1.1}Here's a subsection}{1}}
\@writefile{toc}{\contentsline {subsection}{\numberline {1.2}Here's another subsection. Notice \LaTeX  {}'s automatic numbering.}{1}}
\@writefile{toc}{\contentsline {subsubsection}{\numberline {1.2.1}Here's a subsubsection}{1}}
\@writefile{toc}{\contentsline {section}{\numberline {2}Here we have another section. Notice how the automatic numbering continues.}{1}}
