This is BibTeX, Version 0.99dThe top-level auxiliary file: E:\Files\Work\agis_svn\latex\examples\samplearticle.aux
I found no \citation commands---while reading file E:\Files\Work\agis_svn\latex\examples\samplearticle.aux
I found no \bibdata command---while reading file E:\Files\Work\agis_svn\latex\examples\samplearticle.aux
I found no \bibstyle command---while reading file E:\Files\Work\agis_svn\latex\examples\samplearticle.aux
(There were 3 error messages)
