\relax 
\@writefile{thm}{\contentsline {Exercise}{{\underline {Exercise}}{1}{1.1.1}}{1}}
\@writefile{thm}{\contentsline {Proof}{{\underline {Proof}}{1}{}}{1}}
\@writefile{thm}{\contentsline {Exercise}{{\underline {Exercise}}{2}{1.1.3}}{1}}
\@writefile{thm}{\contentsline {Proof}{{\underline {Proof}}{2}{a}}{1}}
\global\def\markiiProof{\ensuremath {\square }}
\@writefile{thm}{\contentsline {Proof}{{\underline {Proof}}{3}{b}}{1}}
\@writefile{thm}{\contentsline {Proof}{{\underline {Proof}}{4}{c}}{2}}
\@writefile{thm}{\contentsline {Exercise}{{\underline {Exercise}}{3}{1.2.4}}{2}}
\@writefile{thm}{\contentsline {Proof}{{\underline {Proof}}{5}{}}{2}}
