\relax 
\@writefile{thm}{\contentsline {Problem}{{Problem}{1}{2.1.2}}{1}}
\@writefile{thm}{\contentsline {Proof}{{\underline {Proof}}{1}{}}{1}}
\global\def\markiProofi{\ensuremath {\square }}
\@writefile{thm}{\contentsline {Problem}{{Problem}{2}{}}{2}}
\@writefile{thm}{\contentsline {Solution}{{\underline {Solution}}{1}{}}{2}}
