\relax 
\@writefile{thm}{\contentsline {Problem}{{Problem}{1}{1}}{1}}
\@writefile{thm}{\contentsline {Proof}{{\underline {Proof}}{1}{}}{1}}
\@writefile{thm}{\contentsline {Problem}{{Problem}{2}{2}}{1}}
\@writefile{thm}{\contentsline {Proof}{{\underline {Proof}}{2}{}}{1}}
