\relax 
\@writefile{thm}{\contentsline {Problem}{{Problem}{1}{1}}{1}}
\@writefile{thm}{\contentsline {Proof}{{\underline {Proof}}{1}{}}{1}}
\@writefile{thm}{\contentsline {Problem}{{Problem}{2}{2a}}{1}}
\@writefile{thm}{\contentsline {Proof}{{\underline {Proof}}{2}{}}{1}}
\@writefile{thm}{\contentsline {Problem}{{Problem}{3}{2b}}{2}}
\@writefile{thm}{\contentsline {Proof}{{\underline {Proof}}{3}{}}{2}}
\global\def\markiiiProofii{\ensuremath {\square }}
\@writefile{thm}{\contentsline {Problem}{{Problem}{4}{2}}{2}}
\@writefile{thm}{\contentsline {Proof}{{\underline {Proof}}{4}{}}{2}}
