\relax 
\@writefile{thm}{\contentsline {Problem}{{Problem}{1}{1}}{1}}
\@writefile{thm}{\contentsline {Proof}{{\underline {Proof}}{1}{}}{1}}
\@writefile{thm}{\contentsline {Problem}{{Problem}{2}{2a}}{1}}
\@writefile{thm}{\contentsline {Proof}{{\underline {Proof}}{2}{}}{1}}
\@writefile{thm}{\contentsline {Problem}{{Problem}{3}{2b}}{3}}
\@writefile{thm}{\contentsline {Proof}{{\underline {Proof}}{3}{}}{3}}
\global\def\markiiiProofii{\ensuremath {\square }}
\@writefile{thm}{\contentsline {Problem}{{Problem}{4}{2}}{3}}
\@writefile{thm}{\contentsline {Proof}{{\underline {Proof}}{4}{}}{3}}
