\relax 
\@writefile{thm}{\contentsline {Lemma}{{\underline {Lemma}}{1}{}}{2}}
\@writefile{thm}{\contentsline {Proof}{{\underline {Proof}}{1}{}}{2}}
\@writefile{thm}{\contentsline {Corollary}{{\underline {Corollary}}{1}{}}{2}}
