\relax 
\@writefile{thm}{\contentsline {Theorem}{{\underline {Theorem}}{1}{}}{1}}
\@writefile{thm}{\contentsline {Corollary}{{\underline {Corollary}}{1}{}}{1}}
\@writefile{thm}{\contentsline {Proof}{{\underline {Proof}}{1}{}}{1}}
\@writefile{thm}{\contentsline {Theorem}{{\underline {Theorem}}{2}{}}{1}}
\@writefile{thm}{\contentsline {Proof}{{\underline {Proof}}{2}{}}{1}}
\global\def\markiiProof{\ensuremath {\square }}
\@writefile{thm}{\contentsline {Lemma}{{\underline {Lemma}}{1}{}}{2}}
