\relax 
\@writefile{thm}{\contentsline {Lemma}{{\textbf {Lemma}}{1}{}}{1}}
\@writefile{thm}{\contentsline {Proof}{{\underline {Proof}}{1}{}}{1}}
\global\def\markiProof{\ensuremath {\square }}
\@writefile{thm}{\contentsline {Definition}{{\underline {Definition}}{1}{}}{1}}
\@writefile{thm}{\contentsline {Theorem}{{\textbf {Theorem}}{1}{}}{1}}
\@writefile{thm}{\contentsline {Proof}{{\underline {Proof}}{2}{}}{1}}
\@writefile{thm}{\contentsline {Note}{{\underline {Note}}{1}{}}{1}}
\@writefile{thm}{\contentsline {Proof}{{\underline {Proof}}{3}{}}{1}}
\@writefile{thm}{\contentsline {Definition}{{\underline {Definition}}{2}{}}{1}}
\@writefile{thm}{\contentsline {Theorem}{{\textbf {Theorem}}{2}{}}{1}}
\@writefile{thm}{\contentsline {Theorem}{{\textbf {Theorem}}{3}{}}{1}}
\@writefile{thm}{\contentsline {Proof}{{\underline {Proof}}{4}{}}{1}}
