\relax 
\@writefile{thm}{\contentsline {Definition}{{\underline {Definition}}{1}{}}{1}}
\@writefile{thm}{\contentsline {Lemma}{{\textbf {Lemma}}{1}{}}{1}}
\@writefile{thm}{\contentsline {Proof}{{\underline {Proof}}{1}{}}{1}}
\@writefile{thm}{\contentsline {Definition}{{\underline {Definition}}{2}{}}{1}}
\@writefile{thm}{\contentsline {Lemma}{{\textbf {Lemma}}{2}{}}{1}}
\@writefile{thm}{\contentsline {Proof}{{\underline {Proof}}{2}{}}{1}}
\@writefile{thm}{\contentsline {Lemma}{{\textbf {Lemma}}{3}{}}{2}}
\@writefile{thm}{\contentsline {Proof}{{\underline {Proof}}{3}{}}{2}}
\@writefile{thm}{\contentsline {Definition}{{\underline {Definition}}{3}{}}{2}}
