\relax 
\@writefile{thm}{\contentsline {Definition}{{\underline {Definition}}{1}{}}{1}}
\@writefile{thm}{\contentsline {Theorem}{{\textbf {Theorem}}{1}{}}{1}}
\@writefile{thm}{\contentsline {Theorem}{{\textbf {Theorem}}{2}{}}{1}}
\@writefile{thm}{\contentsline {Definition}{{\underline {Definition}}{2}{}}{1}}
