\relax 
\@writefile{thm}{\contentsline {Proof}{{\underline {Proof}}{1}{}}{1}}
\global\def\markiProof{\ensuremath {\square }}
\@writefile{thm}{\contentsline {Definition}{{\underline {Definition}}{1}{}}{1}}
\@writefile{thm}{\contentsline {Lemma}{{\textbf {Lemma}}{1}{}}{2}}
\@writefile{thm}{\contentsline {Proof}{{\underline {Proof}}{2}{$\Leftarrow $}}{2}}
\@writefile{thm}{\contentsline {Proof}{{\underline {Proof}}{3}{$\Rightarrow $}}{2}}
