\relax 
\@writefile{thm}{\contentsline {Theorem}{{\textbf {Theorem}}{1}{}}{1}}
\@writefile{thm}{\contentsline {Lemma}{{\textbf {Lemma}}{1}{}}{1}}
\@writefile{thm}{\contentsline {Lemma}{{\textbf {Lemma}}{2}{}}{1}}
\@writefile{thm}{\contentsline {Proof}{{\underline {Proof}}{1}{}}{1}}
\@writefile{thm}{\contentsline {Lemma}{{\textbf {Lemma}}{3}{}}{1}}
\@writefile{thm}{\contentsline {Proof}{{\underline {Proof}}{2}{}}{2}}
\@writefile{thm}{\contentsline {Definition}{{\underline {Definition}}{1}{}}{2}}
\@writefile{thm}{\contentsline {Definition}{{\underline {Definition}}{2}{}}{2}}
