\relax 
\@writefile{thm}{\contentsline {Problem}{{Problem}{1}{}}{1}}
\@writefile{thm}{\contentsline {Solution}{{\underline {Solution}}{1}{}}{1}}
\@writefile{thm}{\contentsline {Problem}{{Problem}{2}{}}{1}}
\@writefile{thm}{\contentsline {Solution}{{\underline {Solution}}{2}{}}{1}}
\global\def\markiiSolution{\ensuremath {\square }}
\@writefile{thm}{\contentsline {Solution}{{\underline {Solution}}{3}{}}{1}}
\global\def\markiiiSolution{\ensuremath {\square }}
\@writefile{thm}{\contentsline {Solution}{{\underline {Solution}}{4}{}}{2}}
\@writefile{thm}{\contentsline {Problem}{{Problem}{3}{}}{2}}
\@writefile{thm}{\contentsline {Solution}{{\underline {Solution}}{5}{}}{2}}
\@writefile{thm}{\contentsline {Solution}{{\underline {Solution}}{6}{}}{2}}
\@writefile{thm}{\contentsline {Problem}{{Problem}{4}{}}{2}}
\@writefile{thm}{\contentsline {Solution}{{\underline {Solution}}{7}{}}{2}}
\@writefile{thm}{\contentsline {Solution}{{\underline {Solution}}{8}{}}{2}}
\@writefile{thm}{\contentsline {Problem}{{Problem}{5}{}}{2}}
\@writefile{thm}{\contentsline {Solution}{{\underline {Solution}}{9}{}}{2}}
\@writefile{thm}{\contentsline {Solution}{{\underline {Solution}}{10}{}}{3}}
\@writefile{thm}{\contentsline {Solution}{{\underline {Solution}}{11}{}}{3}}
\global\def\markxiSolution{\ensuremath {\square }}
