\relax 
\@writefile{thm}{\contentsline {Problem}{{Problem}{1}{4.20}}{1}}
\@writefile{thm}{\contentsline {Proof}{{\underline {Proof}}{1}{}}{1}}
\@writefile{thm}{\contentsline {Problem}{{Problem}{2}{4.21}}{1}}
\@writefile{thm}{\contentsline {Proof}{{\underline {Proof}}{2}{a}}{1}}
\@writefile{thm}{\contentsline {Proof}{{\underline {Proof}}{3}{}}{1}}
\@writefile{thm}{\contentsline {Problem}{{Problem}{3}{4.22}}{1}}
\@writefile{thm}{\contentsline {Proof}{{\underline {Proof}}{4}{a}}{2}}
\global\def\markivProofii{\ensuremath {\square }}
\@writefile{thm}{\contentsline {Proof}{{\underline {Proof}}{5}{b}}{2}}
\global\def\markvProof{\ensuremath {\square }}
\@writefile{thm}{\contentsline {Proof}{{\underline {Proof}}{6}{c}}{2}}
\global\def\markviProof{\ensuremath {\square }}
\@writefile{thm}{\contentsline {Proof}{{\underline {Proof}}{7}{d}}{2}}
