\relax 
\@writefile{thm}{\contentsline {Problem}{{Problem}{1}{1.4}}{1}}
\@writefile{thm}{\contentsline {Proof}{{\underline {Proof}}{1}{a}}{1}}
\@writefile{thm}{\contentsline {Proof}{{\underline {Proof}}{2}{b}}{1}}
\@writefile{thm}{\contentsline {Proof}{{\underline {Proof}}{3}{c}}{1}}
\@writefile{thm}{\contentsline {Proof}{{\underline {Proof}}{4}{d}}{1}}
\@writefile{thm}{\contentsline {Problem}{{Problem}{2}{1.5}}{1}}
\@writefile{thm}{\contentsline {Proof}{{\underline {Proof}}{5}{a}}{1}}
\@writefile{thm}{\contentsline {Proof}{{\underline {Proof}}{6}{b}}{2}}
\@writefile{thm}{\contentsline {Problem}{{Problem}{3}{1.6}}{2}}
\@writefile{thm}{\contentsline {Proof}{{\underline {Proof}}{7}{}}{2}}
\@writefile{thm}{\contentsline {Problem}{{Problem}{4}{1.8}}{2}}
\@writefile{thm}{\contentsline {Solution}{{\underline {Solution}}{1}{a}}{2}}
\@writefile{thm}{\contentsline {Solution}{{\underline {Solution}}{2}{b}}{2}}
\@writefile{thm}{\contentsline {Problem}{{Problem}{5}{1.9}}{2}}
\@writefile{thm}{\contentsline {Proof}{{\underline {Proof}}{8}{}}{2}}
\@writefile{thm}{\contentsline {Problem}{{Problem}{6}{1.11}}{2}}
\@writefile{thm}{\contentsline {Solution}{{\underline {Solution}}{3}{}}{3}}
\@writefile{thm}{\contentsline {Problem}{{Problem}{7}{1.12}}{3}}
\@writefile{thm}{\contentsline {Solution}{{\underline {Solution}}{4}{a}}{3}}
\@writefile{thm}{\contentsline {Solution}{{\underline {Solution}}{5}{b}}{3}}
\@writefile{thm}{\contentsline {Problem}{{Problem}{8}{1.14}}{3}}
\@writefile{thm}{\contentsline {Solution}{{\underline {Solution}}{6}{a}}{3}}
\@writefile{thm}{\contentsline {Solution}{{\underline {Solution}}{7}{b}}{3}}
\@writefile{thm}{\contentsline {Problem}{{Problem}{9}{1.16}}{3}}
\@writefile{thm}{\contentsline {Solution}{{\underline {Solution}}{8}{a}}{3}}
\@writefile{thm}{\contentsline {Solution}{{\underline {Solution}}{9}{b}}{3}}
\@writefile{thm}{\contentsline {Problem}{{Problem}{10}{1.17}}{3}}
\@writefile{thm}{\contentsline {Solution}{{\underline {Solution}}{10}{}}{4}}
