\relax 
\@writefile{thm}{\contentsline {Problem}{{Problem}{1}{1.18}}{1}}
\@writefile{thm}{\contentsline {Proof}{{\underline {Proof}}{1}{}}{1}}
\@writefile{thm}{\contentsline {Problem}{{Problem}{2}{1.19}}{1}}
\@writefile{thm}{\contentsline {Proof}{{\underline {Proof}}{2}{a}}{1}}
\@writefile{thm}{\contentsline {Proof}{{\underline {Proof}}{3}{b}}{1}}
\@writefile{thm}{\contentsline {Proof}{{\underline {Proof}}{4}{c}}{1}}
\@writefile{thm}{\contentsline {Problem}{{Problem}{3}{1.20}}{1}}
\@writefile{thm}{\contentsline {Proof}{{\underline {Proof}}{5}{a}}{2}}
\@writefile{thm}{\contentsline {Proof}{{\underline {Proof}}{6}{b}}{2}}
\@writefile{thm}{\contentsline {Problem}{{Problem}{4}{1.21}}{2}}
\@writefile{thm}{\contentsline {Proof}{{\underline {Proof}}{7}{}}{2}}
\@writefile{thm}{\contentsline {Problem}{{Problem}{5}{1.22}}{2}}
\@writefile{thm}{\contentsline {Proof}{{\underline {Proof}}{8}{}}{2}}
\@writefile{thm}{\contentsline {Problem}{{Problem}{6}{1.23}}{2}}
\@writefile{thm}{\contentsline {Proof}{{\underline {Proof}}{9}{}}{2}}
\@writefile{thm}{\contentsline {Problem}{{Problem}{7}{1.26}}{2}}
\@writefile{thm}{\contentsline {Proof}{{\underline {Proof}}{10}{}}{2}}
\@writefile{thm}{\contentsline {Problem}{{Problem}{8}{1.28}}{2}}
\@writefile{thm}{\contentsline {Proof}{{\underline {Proof}}{11}{}}{2}}
\@writefile{thm}{\contentsline {Lemma}{{\textbf {Lemma}}{1}{}}{2}}
\@writefile{thm}{\contentsline {Proof}{{\underline {Proof}}{12}{}}{2}}
\@writefile{thm}{\contentsline {Problem}{{Problem}{9}{1.29}}{2}}
\@writefile{thm}{\contentsline {Proof}{{\underline {Proof}}{13}{}}{2}}
\@writefile{thm}{\contentsline {Problem}{{Problem}{10}{1.36}}{3}}
\@writefile{thm}{\contentsline {Proof}{{\underline {Proof}}{14}{a}}{3}}
\@writefile{thm}{\contentsline {Proof}{{\underline {Proof}}{15}{b}}{3}}
