\relax 
\@writefile{thm}{\contentsline {Problem}{{Problem}{1}{2.2}}{1}}
\@writefile{thm}{\contentsline {Proof}{{\underline {Proof}}{1}{}}{1}}
\@writefile{thm}{\contentsline {Problem}{{Problem}{2}{2.4}}{1}}
\@writefile{thm}{\contentsline {Proof}{{\underline {Proof}}{2}{}}{1}}
\@writefile{thm}{\contentsline {Problem}{{Problem}{3}{2.5}}{2}}
\@writefile{thm}{\contentsline {Proof}{{\underline {Proof}}{3}{a}}{2}}
\@writefile{thm}{\contentsline {Proof}{{\underline {Proof}}{4}{b}}{2}}
\global\def\markivProof{\ensuremath {\square }}
\@writefile{thm}{\contentsline {Proof}{{\underline {Proof}}{5}{c}}{2}}
\@writefile{thm}{\contentsline {Problem}{{Problem}{4}{2.6}}{3}}
\@writefile{thm}{\contentsline {Proof}{{\underline {Proof}}{6}{a}}{3}}
\global\def\markviProof{\ensuremath {\square }}
\@writefile{thm}{\contentsline {Proof}{{\underline {Proof}}{7}{b}}{3}}
\global\def\markviiProofi{\ensuremath {\square }}
\@writefile{thm}{\contentsline {Problem}{{Problem}{5}{2.9}}{3}}
\@writefile{thm}{\contentsline {Proof}{{\underline {Proof}}{8}{}}{3}}
\global\def\markviiiProof{\ensuremath {\square }}
\@writefile{thm}{\contentsline {Problem}{{Problem}{6}{2.10}}{3}}
\@writefile{thm}{\contentsline {Proof}{{\underline {Proof}}{9}{}}{3}}
\global\def\markixProofi{\ensuremath {\square }}
\@writefile{thm}{\contentsline {Problem}{{Problem}{7}{2.11}}{4}}
\@writefile{thm}{\contentsline {Proof}{{\underline {Proof}}{10}{}}{5}}
\global\def\markxProof{\ensuremath {\square }}
\@writefile{thm}{\contentsline {Problem}{{Problem}{8}{2.12}}{5}}
\@writefile{thm}{\contentsline {Proof}{{\underline {Proof}}{11}{}}{5}}
\global\def\markxiProof{\ensuremath {\square }}
\@writefile{thm}{\contentsline {Problem}{{Problem}{9}{2.13}}{5}}
\@writefile{thm}{\contentsline {Proof}{{\underline {Proof}}{12}{}}{5}}
