\relax 
\@writefile{thm}{\contentsline {Problem}{{Problem}{1}{2.15}}{1}}
\@writefile{thm}{\contentsline {Proof}{{\underline {Proof}}{1}{}}{1}}
\global\def\markiProof{\ensuremath {\square }}
\@writefile{thm}{\contentsline {Problem}{{Problem}{2}{2.18}}{1}}
\@writefile{thm}{\contentsline {Proof}{{\underline {Proof}}{2}{}}{1}}
\@writefile{thm}{\contentsline {Problem}{{Problem}{3}{2.20}}{1}}
\@writefile{thm}{\contentsline {Proof}{{\underline {Proof}}{3}{}}{1}}
\@writefile{thm}{\contentsline {Problem}{{Problem}{4}{2.21}}{2}}
\@writefile{thm}{\contentsline {Note}{{\underline {Note}}{1}{}}{2}}
\@writefile{thm}{\contentsline {Proof}{{\underline {Proof}}{4}{a}}{2}}
\@writefile{thm}{\contentsline {Proof}{{\underline {Proof}}{5}{b}}{2}}
\global\def\markvProofi{\ensuremath {\square }}
\@writefile{thm}{\contentsline {Proof}{{\underline {Proof}}{6}{c}}{2}}
\@writefile{thm}{\contentsline {Proof}{{\underline {Proof}}{7}{d}}{2}}
\global\def\markviiProofi{\ensuremath {\square }}
\@writefile{thm}{\contentsline {Proof}{{\underline {Proof}}{8}{e}}{2}}
\global\def\markviiiProofiii{\ensuremath {\square }}
\@writefile{thm}{\contentsline {Problem}{{Problem}{5}{2.22}}{3}}
\@writefile{thm}{\contentsline {Proof}{{\underline {Proof}}{9}{}}{3}}
\@writefile{thm}{\contentsline {Problem}{{Problem}{6}{2.23}}{3}}
\@writefile{thm}{\contentsline {Proof}{{\underline {Proof}}{10}{}}{3}}
\@writefile{thm}{\contentsline {Problem}{{Problem}{7}{2.24}}{4}}
\@writefile{thm}{\contentsline {Proof}{{\underline {Proof}}{11}{a}}{4}}
\@writefile{thm}{\contentsline {Proof}{{\underline {Proof}}{12}{b}}{4}}
