\relax 
\@writefile{thm}{\contentsline {Problem}{{Problem}{1}{3.15}}{1}}
\@writefile{thm}{\contentsline {Proof}{{\underline {Proof}}{1}{}}{1}}
\@writefile{thm}{\contentsline {Problem}{{Problem}{2}{3.19}}{1}}
\@writefile{thm}{\contentsline {Proof}{{\underline {Proof}}{2}{a}}{1}}
\@writefile{thm}{\contentsline {Proof}{{\underline {Proof}}{3}{b}}{2}}
\@writefile{thm}{\contentsline {Problem}{{Problem}{3}{3.20}}{2}}
\@writefile{thm}{\contentsline {Proof}{{\underline {Proof}}{4}{a}}{2}}
\@writefile{thm}{\contentsline {Proof}{{\underline {Proof}}{5}{b}}{2}}
\@writefile{thm}{\contentsline {Proof}{{\underline {Proof}}{6}{c}}{2}}
\@writefile{thm}{\contentsline {Problem}{{Problem}{4}{3.21}}{3}}
\@writefile{thm}{\contentsline {Proof}{{\underline {Proof}}{7}{a}}{3}}
\@writefile{thm}{\contentsline {Proof}{{\underline {Proof}}{8}{b}}{3}}
\@writefile{thm}{\contentsline {Problem}{{Problem}{5}{3.24}}{4}}
\@writefile{thm}{\contentsline {Proof}{{\underline {Proof}}{9}{a}}{4}}
\@writefile{thm}{\contentsline {Proof}{{\underline {Proof}}{10}{b}}{4}}
\@writefile{thm}{\contentsline {Problem}{{Problem}{6}{3.27}}{4}}
\@writefile{thm}{\contentsline {Proof}{{\underline {Proof}}{11}{}}{4}}
