\relax 
\@writefile{thm}{\contentsline {Problem}{{Problem}{1}{4.1}}{1}}
\@writefile{thm}{\contentsline {Proof}{{\underline {Proof}}{1}{}}{1}}
\@writefile{thm}{\contentsline {Problem}{{Problem}{2}{4.2}}{1}}
\@writefile{thm}{\contentsline {Proof}{{\underline {Proof}}{2}{}}{1}}
\@writefile{thm}{\contentsline {Problem}{{Problem}{3}{4.3}}{1}}
\@writefile{thm}{\contentsline {Proof}{{\underline {Proof}}{3}{}}{1}}
\global\def\markiiiProof{\ensuremath {\square }}
\@writefile{thm}{\contentsline {Problem}{{Problem}{4}{4.4}}{1}}
\@writefile{thm}{\contentsline {Proof}{{\underline {Proof}}{4}{}}{2}}
\@writefile{thm}{\contentsline {Problem}{{Problem}{5}{4.5}}{3}}
\@writefile{thm}{\contentsline {Proof}{{\underline {Proof}}{5}{a}}{3}}
\@writefile{thm}{\contentsline {Proof}{{\underline {Proof}}{6}{b}}{3}}
\global\def\markviProof{\ensuremath {\square }}
\@writefile{thm}{\contentsline {Proof}{{\underline {Proof}}{7}{c}}{3}}
\global\def\markviiProof{\ensuremath {\square }}
\@writefile{thm}{\contentsline {Problem}{{Problem}{6}{4.6}}{4}}
\@writefile{thm}{\contentsline {Proof}{{\underline {Proof}}{8}{}}{4}}
\@writefile{thm}{\contentsline {Problem}{{Problem}{7}{4.7}}{4}}
\@writefile{thm}{\contentsline {Proof}{{\underline {Proof}}{9}{}}{4}}
\@writefile{thm}{\contentsline {Problem}{{Problem}{8}{4.8}}{5}}
\@writefile{thm}{\contentsline {Proof}{{\underline {Proof}}{10}{a}}{5}}
\@writefile{thm}{\contentsline {Proof}{{\underline {Proof}}{11}{b}}{5}}
