\relax 
\@writefile{thm}{\contentsline {Problem}{{Problem}{1}{4.10}}{1}}
\@writefile{thm}{\contentsline {Proof}{{\underline {Proof}}{1}{}}{1}}
\global\def\markiProof{\ensuremath {\square }}
\@writefile{thm}{\contentsline {Problem}{{Problem}{2}{4.11}}{1}}
\@writefile{thm}{\contentsline {Proof}{{\underline {Proof}}{2}{a}}{1}}
\@writefile{thm}{\contentsline {Proof}{{\underline {Proof}}{3}{b}}{1}}
\@writefile{thm}{\contentsline {Proof}{{\underline {Proof}}{4}{c}}{1}}
\@writefile{thm}{\contentsline {Problem}{{Problem}{3}{4.12}}{2}}
\@writefile{thm}{\contentsline {Proof}{{\underline {Proof}}{5}{}}{2}}
\@writefile{thm}{\contentsline {Problem}{{Problem}{4}{4.13}}{2}}
\@writefile{thm}{\contentsline {Proof}{{\underline {Proof}}{6}{}}{2}}
\@writefile{thm}{\contentsline {Problem}{{Problem}{5}{4.14}}{2}}
\@writefile{thm}{\contentsline {Proof}{{\underline {Proof}}{7}{}}{2}}
\@writefile{thm}{\contentsline {Problem}{{Problem}{6}{4.15}}{2}}
\@writefile{thm}{\contentsline {Proof}{{\underline {Proof}}{8}{}}{2}}
\@writefile{thm}{\contentsline {Problem}{{Problem}{7}{4.18}}{3}}
\@writefile{thm}{\contentsline {Proof}{{\underline {Proof}}{9}{a}}{3}}
\global\def\markixProof{\ensuremath {\square }}
\@writefile{thm}{\contentsline {Proof}{{\underline {Proof}}{10}{b}}{3}}
\@writefile{thm}{\contentsline {Proof}{{\underline {Proof}}{11}{c}}{3}}
