\relax 
\@writefile{thm}{\contentsline {Note}{{\underline {Note}}{1}{}}{1}}
\@writefile{thm}{\contentsline {Note}{{\underline {Note}}{2}{}}{2}}
\@writefile{thm}{\contentsline {Note}{{\underline {Note}}{3}{}}{2}}
\@writefile{thm}{\contentsline {Note}{{\underline {Note}}{4}{}}{3}}
\@writefile{thm}{\contentsline {Note}{{\underline {Note}}{5}{}}{3}}
\@writefile{thm}{\contentsline {Proof}{{\underline {Proof}}{1}{}}{3}}
\global\def\markiProof{\ensuremath {\square }}
\@writefile{thm}{\contentsline {Lemma}{{\underline {Lemma}}{1}{}}{4}}
\@writefile{thm}{\contentsline {Definition}{{\underline {Definition}}{1}{}}{4}}
